Introduction to R
…
---
# Dataset 'doubs' in package 'ade4'
<br>

```r
as_tibble(doubs$env)
# # A tibble: 30 x 11
#      dfs   alt   slo   flo    pH   har   pho   nit   amm   oxy   bdo
#    <dbl> <dbl> <dbl> <dbl> <dbl> <dbl> <dbl> <dbl> <dbl> <dbl> <dbl>
#  1     3   934  6.18    84    79    45     1    20     0   122    27
#  2    22   932  3.43   100    80    40     2    20    10   103    19
#  3   102   914  3.64   180    83    52     5    22     5   105    35
#  4   185   854  3.50   253    80    72    10    21     0   110    13
#  5   215   849  3.18   264    81    84    38    52    20    80    62
#  6   324   846  3.50   286    79    60    20    15     0   102    53
#  7   268   841  4.20   400    81    88     7    15     0   111    22
#  8   491   792  3.26   130    81    94    20    41    12    70    81
#  9   705   752  2.56   480    80    90    30    82    12    72    52
# 10   990   617  4.61  1000    77    82     6    75     1   100    43
# # … with 20 more rows
```
…
```r
denv %>% select(-dfs, -alt, -pH)
# # A tibble: 30 x 8
#      slo   flo   har   pho   nit   amm   oxy   bdo
#    <dbl> <dbl> <dbl> <dbl> <dbl> <dbl> <dbl> <dbl>
#  1  6.18    84    45     1    20     0   122    27
#  2  3.43   100    40     2    20    10   103    19
#  3  3.64   180    52     5    22     5   105    35
#  4  3.50   253    72    10    21     0   110    13
#  5  3.18   264    84    38    52    20    80    62
#  6  3.50   286    60    20    15     0   102    53
#  7  4.20   400    88     7    15     0   111    22
#  8  3.26   130    94    20    41    12    70    81
#  9  2.56   480    90    30    82    12    72    52
# 10  4.61  1000    82     6    75     1   100    43
# # … with 20 more rows
```
…
---
# Mutate
<br>

--

```r
denvM <- denv %>% mutate(pH2 = pH + 1)
denvM
# # A tibble: 30 x 12
#      dfs   alt   slo   flo    pH   har   pho   nit   amm   oxy   bdo   pH2
#    <dbl> <dbl> <dbl> <dbl> <dbl> <dbl> <dbl> <dbl> <dbl> <dbl> <dbl> <dbl>
#  1     3   934  6.18    84    79    45     1    20     0   122    27    80
#  2    22   932  3.43   100    80    40     2    20    10   103    19    81
#  3   102   914  3.64   180    83    52     5    22     5   105    35    84
#  4   185   854  3.50   253    80    72    10    21     0   110    13    81
#  5   215   849  3.18   264    81    84    38    52    20    80    62    82
#  6   324   846  3.50   286    79    60    20    15     0   102    53    80
#  7   268   841  4.20   400    81    88     7    15     0   111    22    82
#  8   491   792  3.26   130    81    94    20    41    12    70    81    82
#  9   705   752  2.56   480    80    90    30    82    12    72    52    81
# 10   990   617  4.61  1000    77    82     6    75     1   100    43    78
# # … with 20 more rows
```

---
# Mutate
<br>

```r
denvM2 <- denv %>% mutate(index = 2*nit + pho + amm)
denvM2
# # A tibble: 30 x 12
#      dfs   alt   slo   flo    pH   har   pho   nit   amm   oxy   bdo index
#    <dbl> <dbl> <dbl> <dbl> <dbl> <dbl> <dbl> <dbl> <dbl> <dbl> <dbl> <dbl>
#  1     3   934  6.18    84    79    45     1    20     0   122    27    41
#  2    22   932  3.43   100    80    40     2    20    10   103    19    52
#  3   102   914  3.64   180    83    52     5    22     5   105    35    54
#  4   185   854  3.50   253    80    72    10    21     0   110    13    52
#  5   215   849  3.18   264    81    84    38    52    20    80    62   162
#  6   324   846  3.50   286    79    60    20    15     0   102    53    50
#  7   268   841  4.20   400    81    88     7    15     0   111    22    37
#  8   491   792  3.26   130    81    94    20    41    12    70    81   114
#  9   705   752  2.56   480    80    90    30    82    12    72    52   206
# 10   990   617  4.61  1000    77    82     6    75     1   100    43   157
# # … with 20 more rows
```
…
---
# Aggregate
<br>

--

```r
denv2 <- denv %>% mutate(nit2 = nit >=125)
denv2
# # A tibble: 30 x 13
#      dfs   alt   slo   flo    pH   har   pho   nit   amm   oxy   bdo idSite nit2 
#    <dbl> <dbl> <dbl> <dbl> <dbl> <dbl> <dbl> <dbl> <dbl> <dbl> <dbl>  <int> <lgl>
#  1     3   934  6.18    84    79    45     1    20     0   122    27      1 FALSE
#  2    22   932  3.43   100    80    40     2    20    10   103    19      2 FALSE
#  3   102   914  3.64   180    83    52     5    22     5   105    35      3 FALSE
#  4   185   854  3.50   253    80    72    10    21     0   110    13      4 FALSE
#  5   215   849  3.18   264    81    84    38    52    20    80    62      5 FALSE
#  6   324   846  3.50   286    79    60    20    15     0   102    53      6 FALSE
#  7   268   841  4.20   400    81    88     7    15     0   111    22      7 FALSE
#  8   491   792  3.26   130    81    94    20    41    12    70    81      8 FALSE
#  9   705   752  2.56   480    80    90    30    82    12    72    52      9 FALSE
# 10   990   617  4.61  1000    77    82     6    75     1   100    43     10 FALSE
# # … with 20 more rows
```

---
# Aggregate
<br>

```r
denv2$alt2 <- "low"
denv2$alt2[denv2$alt>450] <- "medium"
denv2$alt2[denv2$alt>750] <- "high"
denv2$alt2 <- as.factor(denv2$alt2)
denv2
# # A tibble: 30 x 14
#      dfs   alt   slo   flo    pH   har   pho   nit   amm   oxy   bdo idSite nit2  alt2  
#    <dbl> <dbl> <dbl> <dbl> <dbl> <dbl> <dbl> <dbl> <dbl> <dbl> <dbl>  <int> <lgl> <fct> 
#  1     3   934  6.18    84    79    45     1    20     0   122    27      1 FALSE high  
#  2    22   932  3.43   100    80    40     2    20    10   103    19      2 FALSE high  
#  3   102   914  3.64   180    83    52     5    22     5   105    35      3 FALSE high  
#  4   185   854  3.50   253    80    72    10    21     0   110    13      4 FALSE high  
#  5   215   849  3.18   264    81    84    38    52    20    80    62      5 FALSE high  
#  6   324   846  3.50   286    79    60    20    15     0   102    53      6 FALSE high  
#  7   268   841  4.20   400    81    88     7    15     0   111    22      7 FALSE high  
#  8   491   792  3.26   130    81    94    20    41    12    70    81      8 FALSE high  
#  9   705   752  2.56   480    80    90    30    82    12    72    52      9 FALSE high  
# 10   990   617  4.61  1000    77    82     6    75     1   100    43     10 FALSE medium
# # … with 20 more rows
```
…
